<svg width="14" height="16" viewBox="0 0 14 16" fill="none" xmlns="http://www.w3.org/2000/svg">
<path d="M11.9 0H2.1C1.54305 0 1.0089 0.252856 0.615075 0.702943C0.221249 1.15303 0 1.76348 0 2.4V13.6C0 14.2365 0.221249 14.847 0.615075 15.2971C1.0089 15.7471 1.54305 16 2.1 16H6.8992V9.2472H5.7309V6.8624H6.8992V5.3184C6.87284 4.93884 6.91885 4.55726 7.03406 4.19999C7.14927 3.84272 7.33093 3.51828 7.56651 3.24904C7.80209 2.97981 8.08598 2.77219 8.39859 2.64053C8.7112 2.50886 9.04508 2.45627 9.3772 2.4864L11.1972 2.496V4.8104H9.8763C9.80266 4.80603 9.7291 4.82033 9.66087 4.85228C9.59264 4.88424 9.53144 4.93304 9.48167 4.99521C9.43189 5.05737 9.39476 5.13136 9.37295 5.21185C9.35114 5.29235 9.34518 5.37736 9.3555 5.4608V6.8648H11.2259L11.0117 9.2472H9.3555V16H11.9C12.457 16 12.9911 15.7471 13.3849 15.2971C13.7788 14.847 14 14.2365 14 13.6V2.4C14 1.76348 13.7788 1.15303 13.3849 0.702943C12.9911 0.252856 12.457 0 11.9 0Z" fill="white"/>
</svg>
